3120005043-张俊鸿-EDA/D3120005043_zjh/simulation/test_zjh_TF_CC_postlayout_simulation.log
# Reading C:/Microsemi/Libero_SoC_v11.9/Modelsim/tcl/vsim/pref.tcl
# do run.do
# INFO: Simulation library ../designer/impl1/simulation/postlayout already exists
# Model Technology ModelSim Microsemi vmap 10.5c Lib Mapping Utility 2016.07 Jul 21 2016
# vmap postlayout ../designer/impl1/simulation/postlayout 
# Modifying modelsim.ini
# Model Technology ModelSim Microsemi vmap 10.5c Lib Mapping Utility 2016.07 Jul 21 2016
# vmap proasic3 C:/Microsemi/Libero_SoC_v11.9/Designer/lib/modelsim/precompiled/vlog/proasic3 
# Modifying modelsim.ini
# Model Technology ModelSim Microsemi vlog 10.5c Compiler 2016.07 Jul 21 2016
# Start time: 15:18:31 on Dec 23,2021
# vlog -reportprogress 300 -vlog01compat -work postlayout C:/D3120005043_zjh/designer/impl1/zjh_TF_CC_ba.v 
# -- Compiling module zjh_TF_CC
# 
# Top level modules:
# 	zjh_TF_CC
# End time: 15:18:31 on Dec 23,2021, Elapsed time: 0:00:00
# Errors: 0, Warnings: 0
# Model Technology ModelSim Microsemi vlog 10.5c Compiler 2016.07 Jul 21 2016
# Start time: 15:18:31 on Dec 23,2021
# vlog -reportprogress 300 "+incdir+C:/D3120005043_zjh/stimulus" -vlog01compat -work postlayout C:/D3120005043_zjh/stimulus/test_comb.v 
# -- Compiling module test_zjh_74HC148
# -- Compiling module test_zjh_74HC138
# -- Compiling module test_zjh_74HC4511
# -- Compiling module test_zjh_74HC153
# -- Compiling module test_zjh_74HC85
# -- Compiling module test_zjh_74HC283
# -- Compiling module test_zjh_TF_CC
# 
# Top level modules:
# 	test_zjh_74HC148
# 	test_zjh_74HC138
# 	test_zjh_74HC4511
# 	test_zjh_74HC153
# 	test_zjh_74HC85
# 	test_zjh_74HC283
# 	test_zjh_TF_CC
# End time: 15:18:31 on Dec 23,2021, Elapsed time: 0:00:00
# Errors: 0, Warnings: 0
# vsim -L proasic3 -L postlayout -t 1ps -sdfmax /u6=C:/D3120005043_zjh/designer/impl1/zjh_TF_CC_ba.sdf postlayout.test_zjh_TF_CC 
# Start time: 15:18:31 on Dec 23,2021
# //  ModelSim Microsemi 10.5c Jul 21 2016
# //
# //  Copyright 1991-2016 Mentor Graphics Corporation
# //  All Rights Reserved.
# //
# //  ModelSim Microsemi and its associated documentation contain trade
# //  secrets and commercial or financial information that are the property of
# //  Mentor Graphics Corporation and are privileged, confidential,
# //  and exempt from disclosure under the Freedom of Information Act,
# //  5 U.S.C. Section 552. Furthermore, this information
# //  is prohibited from disclosure under the Trade Secrets Act,
# //  18 U.S.C. Section 1905.
# //
# Loading postlayout.test_zjh_TF_CC
# Loading postlayout.zjh_TF_CC
# Loading proasic3.IOTRI_OB_EB
# Loading proasic3.IOPAD_TRI
# Loading proasic3.MX2
# Loading proasic3.AX1D
# Loading proasic3.IOPAD_IN
# Loading proasic3.OR3
# Loading proasic3.IOIN_IB
# Loading proasic3.NOR2B
# Loading proasic3.XOR2
# Loading proasic3.GND
# Loading proasic3.VCC
# SDF 10.5c Compiler 2016.07 Jul 21 2016
# 
# Loading instances from C:/D3120005043_zjh/designer/impl1/zjh_TF_CC_ba.sdf
# Loading proasic3.UDP_MUX2
# Loading timing data from C:/D3120005043_zjh/designer/impl1/zjh_TF_CC_ba.sdf
# ** Note: (vsim-3587) SDF Backannotation Successfully Completed.
#    Time: 0 ps  Iteration: 0  Instance: /test_zjh_TF_CC File: C:/D3120005043_zjh/stimulus/test_comb.v
# time=                   0,a=0000,b=xxxx
# time=                5000,a=0000,b=xxx0
# time=                5000,a=0001,b=xxx0
# time=                7000,a=0001,b=x0x0
# time=                7000,a=0001,b=x000
# time=                8000,a=0001,b=0000
# time=               10000,a=0001,b=0001
# time=               10000,a=0010,b=0001
# time=               15000,a=0010,b=0000
# time=               15000,a=0011,b=0000
# time=               17000,a=0011,b=0010
# time=               20000,a=0011,b=0011
# time=               20000,a=0100,b=0011
# time=               25000,a=0100,b=0010
# time=               25000,a=0101,b=0010
# time=               27000,a=0101,b=0110
# time=               27000,a=0101,b=0100
# time=               30000,a=0101,b=0101
# time=               30000,a=0110,b=0101
# time=               35000,a=0110,b=0100
# time=               35000,a=0111,b=0100
# time=               37000,a=0111,b=0110
# time=               40000,a=0111,b=0111
# time=               40000,a=1000,b=0111
# time=               45000,a=1000,b=0110
# time=               45000,a=1001,b=0110
# ** Error: src/proasic3.v(27149): $width( posedge D:44547 ps, :46383 ps, 2 ns );
#    Time: 46383 ps  Iteration: 0  Instance: /test_zjh_TF_CC/u6/\B_pad[3]/U0/U0 
# time=               47000,a=1001,b=0010
# time=               47000,a=1001,b=1010
# time=               47000,a=1001,b=1000
# time=               50000,a=1001,b=0000
# time=               50000,a=1001,b=0001
# time=               50000,a=1010,b=0001
# time=               53000,a=1010,b=0101
# time=               53000,a=1010,b=0111
# time=               54000,a=1010,b=1111
# time=               55000,a=1010,b=1110
# time=               55000,a=1011,b=1110
# time=               60000,a=1011,b=1111
# time=               60000,a=1100,b=1111
# time=               64000,a=1100,b=1101
# time=               65000,a=1100,b=1100
# time=               65000,a=1101,b=1100
# time=               70000,a=1101,b=1101
# time=               70000,a=1110,b=1101
# time=               73000,a=1110,b=1111
# time=               74000,a=1110,b=1011
# time=               75000,a=1110,b=1010
# time=               75000,a=1111,b=1010
# time=               80000,a=1111,b=1011
# time=               84000,a=1111,b=1001
# End time: 15:18:42 on Dec 23,2021, Elapsed time: 0:00:11
# Errors: 1, Warnings: 0
